<?xml version="1.0" encoding="utf-8"?>
<!-- Generator: Adobe Illustrator 22.0.0, SVG Export Plug-In . SVG Version: 6.00 Build 0)  -->
<svg version="1.1" id="Capa_1" xmlns="http://www.w3.org/2000/svg" xmlns:xlink="http://www.w3.org/1999/xlink" x="0px" y="0px"
	 viewBox="0 0 500 317.8" enable-background="new 0 0 500 317.8" xml:space="preserve">
<g>
	<defs>
		<rect id="SVGID_1_" y="0" width="296.4" height="317.8"/>
	</defs>
	<clipPath id="SVGID_2_">
		<use xlink:href="#SVGID_1_"  overflow="visible"/>
	</clipPath>
	<g transform="matrix(1.4811408,0,0,-1.4811408,0,317.80986)" clip-path="url(#SVGID_2_)">
		<path fill="#CAC2B5" d="M154.6,74.8H44.8c-1.6,0-2.8,1.3-2.8,2.8v9c0,1.6,1.3,2.8,2.8,2.8h109.8c1.6,0,2.8-1.3,2.8-2.8v-9
			C157.4,76.1,156.1,74.8,154.6,74.8"/>
		<path fill="#EFEDE1" d="M181.3,83.2H19.2c-1.6,0-2.8,1.3-2.8,2.8v125.7c0,1.6,1.3,2.8,2.8,2.8h162.1c1.6,0,2.8-1.3,2.8-2.8V86
			C184.1,84.4,182.8,83.2,181.3,83.2"/>
		<path fill="#D8D5CB" d="M173.2,95.3H27.3c-0.8,0-1.4,0.6-1.4,1.4V201c0,0.8,0.6,1.4,1.4,1.4h145.8c0.8,0,1.4-0.6,1.4-1.4V96.7
			C174.6,95.9,173.9,95.3,173.2,95.3"/>
	</g>
</g>
<g>
	<defs>
		<rect id="SVGID_3_" y="0" width="296.4" height="317.8"/>
	</defs>
	<clipPath id="SVGID_4_">
		<use xlink:href="#SVGID_3_"  overflow="visible"/>
	</clipPath>
	<g transform="matrix(1.4811408,0,0,-1.4811408,0,317.80986)" clip-path="url(#SVGID_4_)">
		<path fill="none" stroke="#4F4C4D" stroke-width="0.25" stroke-miterlimit="10" d="M153.1,103.9H47.4c-7.8,0-14.2,6.4-14.2,14.2
			v61.6c0,7.8,6.4,14.2,14.2,14.2h105.6c7.8,0,14.2-6.4,14.2-14.2v-61.6C167.2,110.3,160.9,103.9,153.1,103.9z"/>
		<path fill="#E4DCCB" d="M141.4,65.9H57.9l4.5,8.9h74.5L141.4,65.9L141.4,65.9z"/>
		<path fill="#EFEDE0" d="M159.5,57.5H41.9v8.4h117.6C159.5,65.9,159.5,57.5,159.5,57.5z"/>
		<path fill="#E4DCCB" d="M191.6,0H8.5C3.8,0,0,3.8,0,8.5V49c0,4.7,3.8,8.5,8.5,8.5h183.1c4.7,0,8.5-3.8,8.5-8.5V8.5
			C200.1,3.8,196.3,0,191.6,0"/>
		<path fill="#C0BA9F" d="M14.1,15.4c-1.2,0-2.2,1-2.2,2.2v22.3c0,1.2,1,2.2,2.2,2.2s2.2-1,2.2-2.2V17.6
			C16.3,16.4,15.3,15.4,14.1,15.4 M22.2,15.4c-1.2,0-2.2,1-2.2,2.2v22.3c0,1.2,1,2.2,2.2,2.2s2.2-1,2.2-2.2V17.6
			C24.4,16.4,23.4,15.4,22.2,15.4 M30.2,15.4c-1.2,0-2.2,1-2.2,2.2v22.3c0,1.2,1,2.2,2.2,2.2s2.2-1,2.2-2.2V17.6
			C32.4,16.4,31.4,15.4,30.2,15.4 M38.3,15.4c-1.2,0-2.2,1-2.2,2.2v22.3c0,1.2,1,2.2,2.2,2.2s2.2-1,2.2-2.2V17.6
			C40.5,16.4,39.5,15.4,38.3,15.4 M45.9,15.4c-1.2,0-2.2,1-2.2,2.2v22.3c0,1.2,1,2.2,2.2,2.2s2.2-1,2.2-2.2V17.6
			C48.1,16.4,47.1,15.4,45.9,15.4 M54.1,15.4c-1.2,0-2.2,1-2.2,2.2v22.3c0,1.2,1,2.2,2.2,2.2s2.2-1,2.2-2.2V17.6
			C56.3,16.4,55.3,15.4,54.1,15.4"/>
		<path fill="#666870" d="M188.5,8.2H70c-1.6,0-2.8,1.3-2.8,2.8v35.4c0,1.6,1.3,2.8,2.8,2.8h118.6c1.6,0,2.8-1.3,2.8-2.8V11
			C191.4,9.5,190.1,8.2,188.5,8.2"/>
		<path fill="none" stroke="#4F4C4D" stroke-width="0.5" stroke-miterlimit="10" d="M188.5,8.2H70c-1.6,0-2.8,1.3-2.8,2.8v35.4
			c0,1.6,1.3,2.8,2.8,2.8h118.6c1.6,0,2.8-1.3,2.8-2.8V11C191.4,9.5,190.1,8.2,188.5,8.2z"/>
		<path fill="#201D1D" d="M122.4,25.8H74c-0.8,0-1.4,0.6-1.4,1.4v3c0,0.8,0.6,1.4,1.4,1.4h48.4c0.8,0,1.4-0.6,1.4-1.4v-3
			C123.8,26.5,123.2,25.8,122.4,25.8"/>
		<path fill="#201D1D" d="M101.3,22.2H88.2v13.1h13.1V22.2z"/>
		<path fill="#525458" d="M84.6,22.2h-4.6v13.1h4.6V22.2z"/>
		<path fill="#201D1D" d="M179.1,25.8h-48.4c-0.8,0-1.4,0.6-1.4,1.4v3c0,0.8,0.6,1.4,1.4,1.4h48.4c0.8,0,1.4-0.6,1.4-1.4v-3
			C180.5,26.5,179.9,25.8,179.1,25.8"/>
		<path fill="#525458" d="M186.9,25.7h-3.1c-0.8,0-1.4,0.6-1.4,1.4v3.1c0,0.8,0.6,1.4,1.4,1.4h3.1c0.8,0,1.4-0.6,1.4-1.4v-3.1
			C188.3,26.3,187.7,25.7,186.9,25.7"/>
		<path fill="#201D1D" d="M185.4,31.7h1.6c0.8,0,1.4-0.6,1.4-1.4v-3.1c0-0.8-0.6-1.4-1.4-1.4l-1.6-0.1"/>
		<path fill="#CAC2B5" d="M188.3,10.6h-5.9v5.9h5.9V10.6z"/>
		<path fill="#1F70C1" d="M187.8,11.3h-1.8v1.8h1.8V11.3z"/>
	</g>
</g>
<path fill="#FFFFFF" d="M67.8,163.4c-8.4-1-15.4-7.2-17.5-15.6c-0.7-2.6-0.7-4-0.7-50.3c0-52.8-0.1-50.2,2.3-55.1
	c1.7-3.5,5.3-7.1,8.7-8.8c4.9-2.5-2.3-2.4,87.9-2.3c67.8,0,81.6,0.1,83.1,0.5c7.3,1.9,13,7.6,15,14.9c0.6,2.1,0.6,4.9,0.6,50.7
	c0,45.2,0,48.6-0.6,50.7c-2,7.2-7.5,12.8-14.8,15c-1.9,0.6-6.6,0.6-82,0.7C106,163.6,69,163.5,67.8,163.4L67.8,163.4z"/>
<path fill="#1F70C1" d="M61,62.4v4.8h34v-4.8C95.1,62.4,61,62.4,61,62.4z M99.9,62.4v4.8h48.5c0,0-5-4.8-11.5-4.8
	C136.9,62.4,99.9,62.4,99.9,62.4z M157.9,62.4v4.8h29.4l-1.7-4.8C185.5,62.4,157.9,62.4,157.9,62.4z M208.3,62.4l-1.7,4.8h29.1v-4.8
	C235.7,62.4,208.3,62.4,208.3,62.4z M61,71.7v4.8h34v-4.8H61z M99.9,71.7v4.8H154c0,0-0.6-3.7-1.7-4.8H99.9z M157.9,71.7v4.8h32.6
	l-1.6-4.8H157.9z M204.8,71.7l-1.6,4.8h32.4v-4.8L204.8,71.7L204.8,71.7z M70.8,81v4.8h14.7V81H70.8z M109.7,81v4.8h14.7V81H109.7z
	 M138.8,81v4.8h14.7c0,0,0.9-2.5,0.9-4.8H138.8z M167.7,81v4.8h26.1l-1.7-4.8H167.7z M201.6,81l-1.7,4.8h26.3V81H201.6z M70.8,90.4
	v4.8h14.7v-4.8H70.8z M109.7,90.4v4.8h37.7c0,0,3.2-2.5,4.2-4.8C151.5,90.4,109.7,90.4,109.7,90.4z M167.7,90.4v4.8h14.7v-2.7
	l0.9,2.7h27l1-2.7v2.7h14.7v-4.8h-27.7l-1.5,4.1l-1.5-4.1L167.7,90.4L167.7,90.4z M70.8,99.7v4.8h14.7v-4.8H70.8z M109.7,99.7v4.8
	h41.8c-1-2.3-4.2-4.8-4.2-4.8S109.7,99.7,109.7,99.7z M167.7,99.7v4.8h14.7v-4.8H167.7z M185.1,99.7l1.8,4.8h20.3l1.7-4.8H185.1z
	 M211.4,99.7v4.8h14.7v-4.8H211.4z M70.8,109v4.8h14.7V109H70.8z M109.7,109v4.8h14.7V109H109.7z M138.8,109v4.8h15.7
	c0-2.3-0.9-4.8-0.9-4.8H138.8z M167.7,109v4.8h14.7V109H167.7z M188.5,109l1.7,4.8h13.6l1.7-4.8H188.5z M211.4,109v4.8h14.7V109
	H211.4z M61.3,118.3v4.8h34v-4.8H61.3z M99.9,118.3v4.8h52.4c1.1-1.1,1.7-4.8,1.7-4.8H99.9z M158.2,118.3v4.8h24.3v-4.8H158.2z
	 M191.8,118.3l1.8,4.8h6.9l1.7-4.8H191.8z M211.4,118.3v4.8h24.5v-4.8H211.4z M61.3,127.6v4.8h34v-4.8L61.3,127.6L61.3,127.6z
	 M99.9,127.6v4.8h37c6.6,0,11.5-4.8,11.5-4.8L99.9,127.6L99.9,127.6z M158.2,127.6v4.8h24.3v-4.8
	C182.5,127.6,158.2,127.6,158.2,127.6z M195.2,127.6l1.7,4.8l0.3,0l1.7-4.8L195.2,127.6L195.2,127.6z M211.4,127.6v4.8h24.5v-4.8
	C235.9,127.6,211.4,127.6,211.4,127.6z"/>
<path fill="#D40000" d="M431.9,305.7"/>
<g>
	<g id="g14">
		<g id="g20" transform="translate(172.0199,86.0099)">
			<path fill="#231F20" d="M253,81.8c-41.4,0-75,33.6-75,75s33.6,75,75,75s75-33.6,75-75S294.4,81.8,253,81.8z M252.9,167.2
				c-6.2,0-10.7-5-11-11c-0.3-5.9,5.2-11,11-11c6.2,0,10.7,5,11,11C264.1,162.2,258.6,167.2,252.9,167.2z"/>
		</g>
		<g id="g24" transform="translate(150.1937,36.812)">
			<path id="path26" fill="#FFFFFF" d="M330.8,248.9c-12.9,16.8-33.2,27.6-56,27.6s-43.1-10.8-56-27.6
				c-9.1-11.9-14.5-26.7-14.5-42.9c0-39,31.6-70.5,70.5-70.5c39,0,70.5,31.6,70.5,70.5C345.3,222.2,339.9,237,330.8,248.9
				L330.8,248.9z M274.8,132.3c-40.7,0-73.7,33-73.7,73.7s33,73.7,73.7,73.7c40.7,0,73.7-33,73.7-73.7S315.6,132.3,274.8,132.3"/>
		</g>
		<g id="g32" transform="translate(86.0001,59.9826)">
			<path id="path34" fill="#6E6F71" d="M339,205.5c-12.5,0-22.7-10.2-22.7-22.7s10.2-22.7,22.7-22.7c12.5,0,22.7,10.2,22.7,22.7
				S351.5,205.5,339,205.5 M283,225.7H395c9.1-11.9,14.5-26.7,14.5-42.9c0-39-31.6-70.5-70.5-70.5c-38.9,0-70.5,31.6-70.5,70.5
				C268.5,199,273.9,213.9,283,225.7"/>
		</g>
		<g id="g36" transform="translate(86.0001,61.9003)">
			<path id="path38" fill="#1F70C1" d="M339,201.9c-11.6,0-21-9.4-21-21c0-11.6,9.4-21,21-21c11.6,0,21,9.4,21,21
				C360.1,192.5,350.6,201.9,339,201.9 M339,158.2c-12.5,0-22.7,10.2-22.7,22.7c0,12.5,10.2,22.7,22.7,22.7
				c12.5,0,22.7-10.2,22.7-22.7C361.7,168.4,351.5,158.2,339,158.2"/>
		</g>
		<g id="g40" transform="translate(86.0001,63.4424)">
			<path id="path42" fill="#918F90" d="M339,199.1c-10.9,0-19.7-8.8-19.7-19.7c0-10.9,8.8-19.7,19.7-19.7c10.9,0,19.7,8.8,19.7,19.7
				C358.7,190.2,349.9,199.1,339,199.1 M339,158.4c-11.6,0-21,9.4-21,21c0,11.6,9.4,21,21,21c11.6,0,21-9.4,21-21
				S350.6,158.4,339,158.4"/>
		</g>
		<g id="g44" transform="translate(86.0001,74.1182)">
			<path fill="#4F4C4D" d="M339,149c-10.9,0-19.7,8.8-19.7,19.7c0,10.9,8.8,19.7,19.7,19.7c10.9,0,19.7-8.8,19.7-19.7
				C358.7,157.8,349.9,149,339,149z M340.5,179c-0.5,0.1-1,0.1-1.6,0.1c-6.2,0-10.7-5-11-11c-0.1-3.3,1.5-6.3,3.9-8.3
				c1.9-1.7,4.4-2.7,7.2-2.7c6.1,0,11,4.9,11,11C350,173.7,345.8,178.3,340.5,179z"/>
		</g>
		<g id="g48" transform="translate(86.0001,74.1182)">
			<path fill="none" stroke="#353132" stroke-width="1.3788" stroke-miterlimit="10" d="M339,149c-10.9,0-19.7,8.8-19.7,19.7
				c0,10.9,8.8,19.7,19.7,19.7c10.9,0,19.7-8.8,19.7-19.7C358.7,157.8,349.9,149,339,149z M340.5,179c-0.5,0.1-1,0.1-1.6,0.1
				c-6.2,0-10.7-5-11-11c-0.1-3.3,1.5-6.3,3.9-8.3c1.9-1.7,4.4-2.7,7.2-2.7c6.1,0,11,4.9,11,11C350,173.7,345.8,178.3,340.5,179z"/>
		</g>
		<g id="g52" transform="translate(120.2069,46.6753)">
		</g>
		<g id="g56" transform="translate(96.6313,34.6915)">
		</g>
		<g id="g60" transform="translate(57.4432,34.3568)">
		</g>
		<g id="g64" transform="translate(66.1619,36.1176)">
		</g>
		<g id="g68" transform="translate(73.8872,33.7205)">
		</g>
		<g id="g72" transform="translate(95.358,34.037)">
		</g>
		<g id="g76" transform="translate(84.9848,36.4939)">
		</g>
		<g id="g80" transform="translate(110.4707,40.2041)">
		</g>
		<g id="g84" transform="translate(103.1266,48.8373)">
		</g>
	</g>
	<path id="path4059" inkscape:connector-curvature="0" fill="#1F70C1" d="M402.2,288.1v1.2h8.9v-1.2H402.2z M412.3,288.1v1.2H425
		c0,0-1.3-1.2-3-1.2H412.3z M427.5,288.1v1.2h7.7l-0.5-1.2H427.5z M440.6,288.1l-0.5,1.2h7.6v-1.2H440.6L440.6,288.1z M402.2,290.6
		v1.2h8.9v-1.2H402.2z M412.3,290.6v1.2h14.1c0,0-0.2-1-0.5-1.2H412.3z M427.5,290.6v1.2h8.5l-0.4-1.2L427.5,290.6L427.5,290.6z
		 M439.7,290.6l-0.4,1.2h8.5v-1.2L439.7,290.6L439.7,290.6z M404.7,293v1.3h3.8V293H404.7z M414.9,293v1.3h3.8V293H414.9z
		 M422.5,293v1.3h3.8c0,0,0.2-0.7,0.2-1.3H422.5z M430,293v1.3h6.8l-0.5-1.3H430z M438.9,293l-0.5,1.3h6.9V293H438.9z M404.7,295.4
		v1.2h3.8v-1.2H404.7z M414.9,295.4v1.2h9.8c0,0,0.8-0.6,1.1-1.2H414.9L414.9,295.4z M430,295.4v1.2h3.8V296l0.2,0.7h7l0.3-0.7v0.7
		h3.8v-1.2h-7.2l-0.4,1.1l-0.4-1.1H430L430,295.4z M404.7,297.9v1.2h3.8v-1.2H404.7z M414.9,297.9v1.2h10.9
		c-0.3-0.6-1.1-1.2-1.1-1.2H414.9L414.9,297.9z M430,297.9v1.2h3.8v-1.2H430z M434.6,297.9l0.5,1.2h5.3l0.4-1.2H434.6z M441.4,297.9
		v1.2h3.8v-1.2H441.4z M404.7,300.3v1.2h3.8v-1.2H404.7z M414.9,300.3v1.2h3.8v-1.2H414.9z M422.5,300.3v1.2h4.1
		c0-0.6-0.2-1.2-0.2-1.2H422.5z M430,300.3v1.2h3.8v-1.2H430z M435.4,300.3l0.5,1.2h3.5l0.5-1.2H435.4z M441.4,300.3v1.2h3.8v-1.2
		H441.4z M402.3,302.7v1.3h8.9v-1.3H402.3L402.3,302.7z M412.3,302.7v1.3H426c0.3-0.3,0.5-1.3,0.5-1.3H412.3L412.3,302.7z
		 M427.5,302.7v1.3h6.3v-1.3H427.5z M436.3,302.7l0.5,1.3h1.8l0.4-1.3H436.3z M441.4,302.7v1.3h6.4v-1.3H441.4z M402.3,305.1v1.2
		h8.9v-1.2H402.3L402.3,305.1z M412.3,305.1v1.2h9.7c1.7,0,3-1.2,3-1.2H412.3L412.3,305.1z M427.5,305.1v1.2h6.3v-1.2H427.5z
		 M437.2,305.1l0.4,1.2l0.1,0l0.5-1.2L437.2,305.1L437.2,305.1L437.2,305.1z M441.4,305.1v1.2h6.4v-1.2H441.4L441.4,305.1z"/>
</g>
</svg>
